{
  "project_info": {
    "project_number": "361606959586",
    "project_id": "mtn-crud-app",
    "storage_bucket": "mtn-crud-app.appspot.com"
  },
  "client": [
    {
      "client_info": {
        "mobilesdk_app_id": "1:361606959586:android:a3158366cb68097e8a69bb",
        "android_client_info": {
          "package_name": "com.example.mtn_crud_app"
        }
      },
      "oauth_client": [
        {
          "client_id": "361606959586-9i5a7q1geljl4h1k4nsvgj8555egp9v9.apps.googleusercontent.com",
          "client_type": 3
        }
      ],
      "api_key": [
        {
          "current_key": "AIzaSyDEkPJmHvJSrn3fcHRWfg3ygJepFKXPB00"
        }
      ],
      "services": {
        "appinvite_service": {
          "other_platform_oauth_client": [
            {
              "client_id": "361606959586-9i5a7q1geljl4h1k4nsvgj8555egp9v9.apps.googleusercontent.com",
              "client_type": 3
            }
          ]
        }
      }
    }
  ],
  "configuration_version": "1"
}